<?xml version="1.0" encoding="utf-8"?>
<!-- Generated by IcoMoon.io -->
<!DOCTYPE svg PUBLIC "-//W3C//DTD SVG 1.1//EN" "http://www.w3.org/Graphics/SVG/1.1/DTD/svg11.dtd">
<svg version="1.1" xmlns="http://www.w3.org/2000/svg" xmlns:xlink="http://www.w3.org/1999/xlink" width="32" height="32" viewBox="0 0 32 32">
<path d="M0.971 25.109c3.115 0.107 5.92-0.64 8.533-2.592-2.667-0.352-4.512-1.611-5.515-4.192 0.875 0 1.643 0 2.4 0-2.752-1.077-4.309-2.965-4.501-5.952 0.843 0.235 1.621 0.448 2.4 0.661-2.464-2.901-3.008-5.493-1.515-7.989 3.253 3.712 7.285 5.888 12.224 6.197 0-0.565-0.021-1.056 0-1.547 0.107-2.464 1.312-4.245 3.52-5.237 2.155-0.96 4.277-0.736 6.144 0.779 0.597 0.48 1.109 0.555 1.76 0.299 0.853-0.341 1.717-0.683 2.656-1.056-0.405 1.312-1.291 2.197-2.165 3.168 0.939-0.256 1.877-0.501 2.805-0.757 0.032 0.032 0.075 0.053 0.107 0.085-0.48 0.544-0.885 1.205-1.461 1.621-1.163 0.821-1.376 1.909-1.472 3.253-0.587 7.84-6.389 14.752-14.709 15.659-3.723 0.405-7.275-0.149-10.571-2.005-0.213-0.128-0.427-0.256-0.64-0.395z"></path>
</svg>
