<?xml version="1.0" standalone="no"?>
<!DOCTYPE svg PUBLIC "-//W3C//DTD SVG 1.1//EN" "http://www.w3.org/Graphics/SVG/1.1/DTD/svg11.dtd" >
<svg xmlns="http://www.w3.org/2000/svg">
<metadata>Generated by IcoMoon</metadata>
<defs>
<font id="icomoon" horiz-adv-x="1024">
<font-face units-per-em="1024" ascent="960" descent="-64" />
<missing-glyph horiz-adv-x="1024" />
<glyph unicode="&#x20;" horiz-adv-x="512" d="" />
<glyph unicode="&#xe900;" glyph-name="arrow-left" horiz-adv-x="724" d="M593.918 76.969c42.084 43.543 3.649 77.478-27.123 107.642-93.168 91.344-186.702 182.201-288.992 281.694 0.243 0.243 0.365 0.365 0.608 0.608-0.243 0.243-0.365 0.365-0.608 0.608 102.169 92.56 195.824 177.093 288.992 261.99 30.894 28.096 69.207 59.599 27.123 100.223-43.665 42.084-76.992 3.527-107.034-24.204-99.25-91.465-196.432-184.877-297.141-274.883-25.299-22.623-37.948-43.057-37.948-63.612 0-22.137 12.649-44.152 37.948-68.356 100.709-96.817 197.77-197.283 297.020-295.56 30.164-29.921 63.491-71.397 107.156-26.15z" />
<glyph unicode="&#xe901;" glyph-name="arrow-right" horiz-adv-x="724" d="M170.403 828.275c-42.084-43.543-3.649-77.478 27.123-107.642 93.29-91.344 186.823-182.201 288.992-281.694-0.243-0.243-0.365-0.365-0.608-0.608 0.243-0.243 0.365-0.365 0.608-0.608-102.169-92.56-195.824-177.093-288.992-261.99-30.894-28.096-69.207-59.599-27.123-100.223 43.665-42.084 76.992-3.527 107.034 24.204 99.25 91.465 196.432 184.877 297.020 274.883 25.299 22.623 37.948 43.057 37.948 63.612 0 22.137-12.649 44.152-37.948 68.356-100.709 96.817-197.77 197.283-297.020 295.56-30.043 29.921-63.369 71.397-107.034 26.15z" />
<glyph unicode="&#xe902;" glyph-name="toggle" d="M607.915 715.605c0-52.972-42.942-95.915-95.915-95.915s-95.915 42.942-95.915 95.915c0 52.972 42.942 95.915 95.915 95.915s95.915-42.942 95.915-95.915zM607.915 470.187c0-52.972-42.942-95.915-95.915-95.915s-95.915 42.942-95.915 95.915c0 52.972 42.942 95.915 95.915 95.915s95.915-42.942 95.915-95.915zM607.915 229.888c0-52.972-42.942-95.915-95.915-95.915s-95.915 42.942-95.915 95.915c0 52.972 42.942 95.915 95.915 95.915s95.915-42.942 95.915-95.915z" />
<glyph unicode="&#xe903;" glyph-name="calificacion" d="M971.093 552.448l-317.099 48.128-139.605 288.427-144.043-286.379-317.44-44.032 228.011-225.28-56.32-315.392 284.672 147.115 282.624-151.211-51.883 316.416z" />
<glyph unicode="&#xe905;" glyph-name="generos" d="M477.867 484.181h-391.509v391.851h391.509v-391.851zM158.037 555.861h248.149v248.491h-248.149v-248.491zM932.523 484.181h-391.509v391.851h391.509v-391.851zM612.693 555.861h248.149v248.491h-248.149v-248.491zM477.867 46.592h-391.509v391.509h391.509v-391.509zM158.037 118.272h248.149v248.149h-248.149v-248.149zM932.523 46.592h-391.509v391.509h391.509v-391.509zM612.693 118.272h248.149v248.149h-248.149v-248.149z" />
<glyph unicode="&#xe906;" glyph-name="recomendadas" d="M912.725 531.285c-26.965 44.373-75.435 70.315-132.437 70.656-17.408 0-35.157 0-53.248 0h-6.827c20.821 52.907 23.211 107.861 6.485 163.84-15.019 50.517-51.883 81.579-109.568 93.184-2.048 0.341-4.096 1.024-6.485 2.048-1.365 0.341-2.731 1.024-4.096 1.365l-2.048 0.683h-41.984l-2.048-0.683c-36.864-13.312-60.757-41.301-73.045-86.016-0.683-3.072-1.707-6.144-2.731-9.216-3.413-12.288-6.827-24.917-8.875-37.888-4.779-28.331-17.067-52.565-38.571-76.459s-41.984-49.152-61.781-73.728c-7.509-9.557-15.36-18.773-22.869-28.331-9.899-11.947-19.797-16.725-34.475-16.043-37.205 1.707-74.752 1.024-111.275 0.341h-4.437c-46.421-1.024-77.824-32.427-78.165-78.507-0.341-108.203-0.341-217.429 0-324.608 0.341-46.421 31.744-77.483 79.872-78.848 34.475-1.024 69.632-1.024 104.448 0 26.965 0.683 53.931-3.072 84.651-12.288 46.763-13.653 94.208-25.941 140.629-38.229 19.115-5.12 38.229-9.899 57.344-15.019l1.707-0.341h124.245l1.707 0.683c5.461 1.707 11.264 3.072 17.067 4.437 13.312 3.413 27.307 6.827 40.277 12.629 52.565 24.576 81.92 68.608 88.064 131.413 0.341 5.12 2.731 10.923 5.12 17.067 1.024 2.389 2.048 5.12 2.731 7.509 2.048 5.803 4.437 11.947 7.168 18.091 6.144 14.336 12.288 29.013 13.653 45.056 2.731 30.037 6.827 53.248 13.995 75.776 4.437 13.653 4.096 27.989 3.755 41.643 0 6.485-0.341 12.971 0 18.773v2.731c0.341 6.485 0.683 12.971 2.731 17.067 26.624 51.541 26.283 106.496-0.683 151.211zM817.835 404.992c-2.048-1.365-4.096-3.072-6.485-4.779l-8.875-7.168 5.461-9.899c19.456-34.816 18.091-63.829-4.437-90.795-8.533-9.899-4.096-25.6-3.413-27.307 8.533-27.989 2.731-50.859-17.749-71.68-6.485-6.485-10.24-17.067-9.557-25.941 2.389-30.037-2.389-51.541-14.336-65.536-12.288-13.995-33.109-21.845-64.171-23.893-76.8-4.779-156.331 7.509-242.347 37.888-25.259 8.875-50.859 15.701-77.483 23.211-8.875 2.389-18.091 5.12-27.648 7.509v296.96c22.528 1.707 42.667 12.629 61.099 33.109 18.773 20.821 36.864 42.667 54.613 63.829 7.168 8.533 14.336 17.067 21.163 25.6 1.365 1.707 3.072 3.755 4.437 5.461 1.707 2.389 3.413 4.779 5.12 6.485 41.643 38.912 66.901 90.795 77.483 159.061 0 0.683 0.341 1.707 0.341 2.048 2.048 4.779 3.413 9.557 4.437 14.336 3.413 13.653 5.12 16.384 10.923 17.067 21.504 2.731 42.667-7.851 49.835-25.941 14.677-36.181 12.971-74.069-4.779-116.053-9.216-21.845-17.408-43.691-26.283-67.243-4.096-10.581-8.192-21.845-12.629-33.109l-6.827-18.091h70.656c12.629 0 25.6 0 38.229 0 29.355 0 59.733 0 89.771 0 25.941-0.341 44.032-11.605 53.589-34.133 8.533-20.139 4.437-40.277-12.971-65.195-1.365-1.365-4.096-3.413-7.168-5.803zM253.611 164.011c0-10.24-8.533-19.456-18.773-19.797s-19.456 8.533-19.797 18.773c-0.341 5.12 1.707 10.581 5.461 14.336s8.533 5.803 13.653 5.803c0 0 0 0 0 0 10.581 0 19.456-8.875 19.456-19.115z" />
<glyph unicode="&#xe907;" glyph-name="favoritas" d="M534.187 6.656h-50.517l-11.947 10.581c-2.389 2.048-4.437 4.096-6.827 5.803-5.803 5.12-11.947 10.24-18.091 16.384-76.8 76.459-153.259 152.917-230.059 229.376l-113.323 113.323c-35.499 35.157-60.075 77.824-73.387 126.293-3.072 10.923-5.12 21.504-6.827 31.744-0.683 4.096-1.365 8.192-2.389 12.288l-1.024 4.096v55.296l1.707 5.803c0.341 1.707 1.024 3.072 1.365 4.779 0 0.341 0.341 1.024 0.341 1.365 16.725 105.131 78.165 182.613 177.493 223.232 17.408 7.168 35.157 10.923 50.859 14.336 6.485 1.365 12.971 2.731 18.773 4.437l5.12 1.365h55.637l5.803-1.707c1.707-0.341 3.413-1.024 5.12-1.707 0.341 0 0.683-0.341 1.024-0.341 62.123-8.192 116.395-35.499 161.451-80.896 1.365-1.707 3.072-3.072 4.437-4.779 32.768 34.816 71.68 59.733 116.736 74.411 13.995 4.437 27.989 7.509 41.301 10.24 5.461 1.024 10.581 2.389 16.043 3.413l4.779 1.024h56.32l6.485-2.048c1.365-0.341 2.731-1.024 4.437-1.707 116.053-19.115 196.608-89.429 232.789-203.776 3.413-10.581 5.461-20.821 7.168-29.696 0.683-3.755 1.365-7.168 2.389-10.923l1.024-4.779v-63.147l-2.048-6.144c-0.683-1.707-1.024-3.413-1.707-5.12 0-0.341-0.341-0.341-0.341-0.683-8.875-60.075-35.84-112.981-79.531-157.013-119.125-119.467-239.616-239.616-343.381-342.699-6.144-6.144-12.629-11.605-18.432-16.384-2.389-2.048-4.779-3.755-6.827-5.803l-11.947-10.24zM104.448 565.419c0.683-3.072 1.024-6.144 1.707-9.216 1.707-8.875 3.072-17.067 5.12-24.576 9.557-34.475 26.283-63.488 51.541-88.747l113.664-113.323c76.8-76.459 153.259-152.917 230.059-229.376 0.683-0.683 1.707-1.707 2.389-2.389 0.683 0.683 1.707 1.365 2.389 2.389 103.424 103.083 223.915 223.232 343.381 342.699 31.403 31.403 49.835 67.584 55.637 110.251 0.683 4.437 1.707 8.533 2.731 11.605v40.277c-0.683 2.731-1.024 5.461-1.707 7.851-1.707 7.851-3.072 15.019-5.12 21.163-26.965 84.651-81.579 132.437-167.253 145.749-3.755 0.683-6.827 1.365-9.557 2.389h-32.085c-4.437-1.024-8.533-1.707-12.971-2.731-11.605-2.389-22.528-4.779-32.427-7.851-43.691-14.336-78.507-41.643-106.496-83.968l-31.403-47.445-36.864 43.349c-4.096 4.779-7.851 9.557-11.947 14.336-7.509 9.216-14.677 18.091-21.845 25.259-31.744 32.085-68.949 50.517-112.981 55.979-4.779 0.683-8.533 1.707-11.947 2.731h-32.768c-5.803-1.365-11.264-2.389-16.725-3.755-13.312-2.731-25.941-5.461-36.181-9.899-72.704-30.037-114.005-81.92-125.952-158.72-0.683-4.096-1.707-7.509-2.389-10.581v-33.451z" />
<glyph unicode="&#xe908;" glyph-name="populares" d="M899.413 882.859h-795.307c-31.061 0-56.32-25.259-56.32-56.32v-757.077c0-31.061 25.259-56.32 56.32-56.32h795.307c31.061 0 56.32 25.259 56.32 56.32v757.077c0 31.061-25.259 56.32-56.32 56.32zM870.4 797.525v-699.051h-737.28v699.051h737.28zM368.64 618.667v-334.165l289.451 167.253z" />
<glyph unicode="&#xe909;" glyph-name="recientes" d="M679.253 485.205h-143.019v142.677c0 11.264-9.216 20.48-20.48 20.48h-43.349c-11.264 0-20.48-9.216-20.48-20.48v-143.019h-142.677c-11.264 0-20.48-9.216-20.48-20.48v-43.349c0-11.264 9.216-20.48 20.48-20.48h143.019v-143.019c0-11.264 9.216-20.48 20.48-20.48h43.349c11.264 0 20.48 9.216 20.48 20.48v143.019h142.677c11.264 0 20.48 9.216 20.48 20.48v43.349c0 11.605-8.875 20.821-20.48 20.821zM506.88 900.267c-252.245 0-457.387-205.141-457.387-457.387s205.141-457.387 457.387-457.387 457.387 205.141 457.387 457.387-205.141 457.387-457.387 457.387zM506.88 70.827c-205.141 0-372.053 166.912-372.053 372.053s166.912 372.053 372.053 372.053c205.141 0 372.053-166.912 372.053-372.053s-166.912-372.053-372.053-372.053z" />
<glyph unicode="&#xe90a;" glyph-name="hamburguer" d="M188.416 600.235h679.253c40.96 0 74.411 33.451 74.411 74.411s-33.451 74.411-74.411 74.411h-679.253c-40.96 0-74.411-33.451-74.411-74.411s33.451-74.411 74.411-74.411zM867.669 515.584h-679.253c-40.96 0-74.411-33.451-74.411-74.411s33.451-74.411 74.411-74.411h679.253c40.96 0 74.411 33.451 74.411 74.411s-33.451 74.411-74.411 74.411zM867.669 281.771h-679.253c-40.96 0-74.411-33.451-74.411-74.411s33.451-74.411 74.411-74.411h679.253c40.96 0 74.411 33.451 74.411 74.411s-33.451 74.411-74.411 74.411z" />
<glyph unicode="&#xe90b;" glyph-name="facebook" d="M516.096-15.531c-8.533-1.024-164.181-0.683-169.984 0 0 1.024-0.341 2.389-0.683 3.413 0 2.389 0 4.779 0 7.509 0 139.947 0 279.893 0 419.84 0 3.072 0 6.485 0 9.899-1.707 0.341-3.072 1.024-4.437 1.024-6.144 0-12.288 0-18.432 0-28.331 0-56.661 0-84.992 0-2.731 0-5.461 0-7.509 0.341-2.048 2.048-1.365 4.096-1.365 6.144 0 12.629 0 24.917 0 37.547 0 36.181 0 72.363 0 108.544 0 2.731 0 5.461 0 7.851 3.072 1.707 5.803 1.024 8.192 1.024 32.768 0 65.536 0 97.963 0 3.072 0 6.485 0 9.899 0 0.341 1.707 0.683 3.072 0.683 4.437 0 2.048 0 4.437 0 6.485 0 40.277 0 80.555 0 121.173 0 14.677 1.024 29.355 3.755 44.032 13.653 70.997 53.589 120.149 120.491 146.773 19.797 7.851 40.96 12.629 62.123 15.36 25.941 3.413 51.883 3.072 78.165 2.048 14.677-0.683 29.355-1.365 44.032-2.389 10.923-0.683 21.845-2.048 32.768-3.072 1.707-3.072 1.024-5.803 1.024-8.192-0.683-25.941-1.365-52.224-2.048-78.165-0.341-19.797-1.024-39.253-1.365-59.051 0-1.365-0.341-3.072-0.341-4.096-2.389-2.048-4.779-1.024-7.168-1.024-32.085 0-63.829 0.341-95.915 0.341-8.875 0-17.749-0.683-26.283-2.731-3.072-0.683-6.144-1.707-9.216-2.731-12.288-4.779-20.48-13.312-24.576-25.6-3.072-8.533-3.755-17.408-4.437-25.941-0.341-3.755-0.341-7.851-0.341-11.947 0-35.499 0-71.339 0-106.837 0-2.389 0-4.779 0.341-7.168 2.389-1.365 5.12-1.024 7.509-1.024 20.821 0 41.301 0 62.123 0 31.403 0 62.805 0 94.549 0 2.731 0 5.12-0.341 8.192-0.341 0-2.048 0.341-3.413 0.341-4.779-2.389-51.883-4.779-103.424-7.509-155.648-1.707-0.341-3.072-0.683-4.779-0.683-2.048 0-4.437 0-6.485 0-48.128 0-96.256 0-144.725 0-2.731 0-5.803 0.341-9.216-1.024-0.341-9.557 0-19.456 0-29.355s0-19.797 0-29.355c0-9.557 0-19.115 0-28.672 0-9.899 0-19.797 0-29.355s0-19.797 0-29.355 0-19.797 0-29.355 0-19.797 0-29.355c0-9.557 0-19.115 0-28.672 0-9.899 0-19.797 0-29.355s0-19.797 0-29.355 0-19.797 0-29.355 0-19.797 0-29.355c0-9.557 0-19.115 0-28.672 0-9.899 0-19.797 0-29.355 0-12.629 0.341-22.187-0.341-32.427z" />
<glyph unicode="&#xe90c;" glyph-name="instagram" d="M838.997-15.189h-654.677l-5.12 2.048c-2.731 1.024-5.461 2.048-8.192 2.731-6.827 2.389-13.653 4.779-20.139 7.509-39.936 17.067-65.536 49.493-78.848 99.328l-1.024 4.096v659.797l2.731 6.144c1.707 4.096 3.413 8.192 5.12 12.629 4.437 10.923 8.533 22.528 15.36 33.792 20.48 34.816 53.931 49.493 87.040 59.733l4.779 1.365h653.653l5.461-2.048c2.731-1.024 5.461-2.048 8.533-3.072 6.827-2.389 14.336-5.12 21.504-8.192 38.229-16.725 63.488-49.152 77.141-98.304l1.024-4.096v-659.797l-2.731-6.144c-1.707-4.096-3.413-8.192-5.12-12.629-4.437-10.923-8.533-22.528-15.36-33.792-20.48-35.157-53.931-49.493-87.040-59.733l-4.096-1.365zM195.243 48.981h634.197c22.187 7.168 37.888 15.019 46.080 29.355 4.096 6.827 7.509 15.701 10.923 24.576 1.024 2.731 2.048 5.461 3.072 8.192v638.293c-8.533 28.331-20.48 44.032-39.936 52.565-5.461 2.389-11.264 4.437-17.067 6.485-1.365 0.341-2.731 1.024-4.096 1.365h-633.515c-22.869-7.509-37.888-15.019-46.421-29.355-4.096-6.827-7.509-15.701-10.923-24.576-1.024-2.731-2.048-5.461-3.072-8.192v-638.293c8.192-28.331 20.821-44.373 41.301-53.248 5.12-2.389 10.581-4.096 16.043-5.803 1.024-0.683 2.048-1.024 3.413-1.365zM510.976 79.701c-91.136 0-182.613 0-273.749 0-50.859 0-75.776 24.576-75.776 75.435v369.664h147.115l-9.557-39.595c-20.821-86.016-2.389-156.331 57.003-215.040 45.056-44.715 100.352-65.195 168.619-63.147 64.512 2.048 129.707 36.523 169.984 90.795 27.648 37.205 55.979 100.011 33.792 187.051l-10.24 40.277h141.312l1.707-36.523c0.341-5.12 0.683-9.557 0.683-14.336 0-105.813 0-211.285 0-317.099 0-51.883-24.917-76.8-76.459-76.8-91.819-0.683-182.955-0.683-274.432-0.683zM225.963 144.555c2.048-0.341 5.461-0.683 11.264-0.683 81.579 0 163.157 0 245.077 0-66.56 6.485-123.904 33.451-171.008 80.213-66.219 65.536-93.525 144.725-81.579 236.203h-4.437v-305.493c0-5.12 0.341-8.192 0.683-10.24zM797.696 390.997c-5.461-47.787-23.211-93.184-52.565-132.437-47.445-63.488-122.197-106.496-198.656-114.688 79.531 0 159.061 0 238.592 0 6.144 0 9.899 0.341 11.947 1.024 0.341 2.048 1.024 5.803 1.024 11.947-0.341 77.824-0.341 155.989-0.341 234.155zM512.341 238.080c0 0 0 0 0 0-107.861 0-196.267 86.699-196.608 192.853-0.341 49.835 19.456 97.28 55.637 133.803 37.205 37.547 88.405 59.392 140.629 59.392 0 0 0 0 0.341 0 53.589 0 103.424-20.821 140.971-58.368 36.181-36.523 55.979-84.651 55.979-135.509v0c-0.341-106.155-88.405-192.171-196.949-192.171zM512.341 559.957c0 0 0 0 0 0-35.499 0-70.315-14.677-95.915-40.277-24.235-24.235-37.205-55.637-37.205-88.405 0.341-69.973 61.099-129.024 132.779-129.024 0 0 0 0 0 0 73.387 0 133.12 57.344 133.12 128 0 33.792-13.312 65.536-37.205 89.771-24.917 25.6-59.051 39.936-95.573 39.936zM744.789 553.813c-15.701 0-31.061 0.341-46.080 1.024-40.619 1.707-67.243 30.037-67.925 72.363-0.341 28.672-0.341 56.661 0 83.627 0.683 43.008 27.648 70.315 70.315 71.68 10.581 0.341 20.821 0.341 31.403 0h13.312c4.779 0 9.557 0 14.336 0 10.581 0 21.504 0.341 32.085-0.341 38.912-1.707 65.877-27.989 67.584-65.536 1.365-30.379 1.365-62.123 0.341-94.549-1.707-38.912-29.013-65.877-68.267-67.584-16.384-0.341-32.085-0.683-47.104-0.683zM695.979 619.691c0 0 1.365-0.683 5.12-1.024 27.989-1.024 57.003-1.365 88.405 0 3.755 0 5.803 1.024 6.144 1.365 0 0.341 0.683 1.707 1.024 4.779 1.365 30.379 1.024 60.075 0 88.747 0 3.072-0.341 4.096-6.485 4.437-9.557 0.341-19.456 0.341-29.013 0.341-5.12 0-10.24 0-15.019 0h-13.653c-9.557 0-19.456 0-29.013 0-5.461 0-7.168-1.365-7.509-1.365 0 0-1.024-2.048-1.024-7.168-0.341-26.283-0.341-53.589 0-81.579-0.683-5.461 0.341-7.851 1.024-8.533v0z" />
<glyph unicode="&#xe90d;" glyph-name="twitter" d="M31.061 156.501c99.669-3.413 189.44 20.48 273.067 82.944-85.333 11.264-144.384 51.541-176.469 134.144 27.989 0 52.565 0 76.8 0-88.064 34.475-137.899 94.891-144.043 190.464 26.965-7.509 51.883-14.336 76.8-21.163-78.848 92.843-96.256 175.787-48.469 255.659 104.107-118.784 233.131-188.416 391.168-198.315 0 18.091-0.683 33.792 0 49.493 3.413 78.848 41.984 135.851 112.64 167.595 68.949 30.72 136.875 23.552 196.608-24.917 19.115-15.36 35.499-17.749 56.32-9.557 27.307 10.923 54.955 21.845 84.992 33.792-12.971-41.984-41.301-70.315-69.291-101.376 30.037 8.192 60.075 16.043 89.771 24.235 1.024-1.024 2.389-1.707 3.413-2.731-15.36-17.408-28.331-38.571-46.763-51.883-37.205-26.283-44.032-61.099-47.104-104.107-18.773-250.88-204.459-472.064-470.699-501.077-119.125-12.971-232.789 4.779-338.261 64.171-6.827 4.096-13.653 8.192-20.48 12.629z" />
<glyph unicode="&#xe90e;" glyph-name="list2" d="M510.976 939.52c-266.24 0-482.816-216.576-482.816-482.816s216.576-482.816 482.816-482.816 482.304 217.088 482.304 482.816-216.576 482.816-482.304 482.816zM510.976 218.624c-131.584 0-238.592 107.008-238.592 238.592s107.008 238.592 238.592 238.592c131.584 0 238.592-107.008 238.592-238.592-0.512-131.584-107.52-238.592-238.592-238.592z" />
</font></defs></svg>